%YAML 1.1
%TAG !u! tag:unity3d.com,2011:
--- !u!21 &2100000
Material:
  serializedVersion: 6
  m_ObjectHideFlags: 0
  m_PrefabParentObject: {fileID: 0}
  m_PrefabInternal: {fileID: 0}
  m_Name: tm_attack02_4
  m_Shader: {fileID: 4800000, guid: 368226b8f3764066a8d5760df7c817db, type: 3}
  m_ShaderKeywords: 
  m_LightmapFlags: 4
  m_EnableInstancingVariants: 0
  m_DoubleSidedGI: 0
  m_CustomRenderQueue: 3013
  stringTagMap: {}
  disabledShaderPasses: []
  m_SavedProperties:
    serializedVersion: 3
    m_TexEnvs:
    - _color_T:
        m_Texture: {fileID: 2800000, guid: 99d0884df42344bea9a9c1de38bba261, type: 3}
        m_Scale: {x: 1, y: 1}
        m_Offset: {x: 0, y: 0}
    - _dissulve_tex:
        m_Texture: {fileID: 2800000, guid: c5599316b6b74e0b9d221c0ca94ad32f, type: 3}
        m_Scale: {x: 2, y: 2}
        m_Offset: {x: 0, y: 0}
    - _mask:
        m_Texture: {fileID: 2800000, guid: 99d0884df42344bea9a9c1de38bba261, type: 3}
        m_Scale: {x: 1, y: 1}
        m_Offset: {x: 0, y: 0}
    m_Floats:
    - _Edge_with: 0.2
    - _Value: 2
    - _dissolve_edge_hard: 50
    - _dissuvle_vaule: 1.15
    - _gaoguang_qiangdu: 2
    m_Colors:
    - _Main_color: {r: 0.8401083, g: 0.4103774, b: 1, a: 1}
    - _gaoguang: {r: 1, g: 0.3443396, b: 0.4126815, a: 1}
