%YAML 1.1
%TAG !u! tag:unity3d.com,2011:
--- !u!21 &2100000
Material:
  serializedVersion: 6
  m_ObjectHideFlags: 0
  m_PrefabParentObject: {fileID: 0}
  m_PrefabInternal: {fileID: 0}
  m_Name: tm_attack03_9
  m_Shader: {fileID: 4800000, guid: 256e1848729349468c75870f90659eda, type: 3}
  m_ShaderKeywords: 
  m_LightmapFlags: 4
  m_EnableInstancingVariants: 0
  m_DoubleSidedGI: 0
  m_CustomRenderQueue: -1
  stringTagMap: {}
  disabledShaderPasses: []
  m_SavedProperties:
    serializedVersion: 3
    m_TexEnvs:
    - _color_T:
        m_Texture: {fileID: 2800000, guid: 74fcb952704f48fc8406a4b0e7b56180, type: 3}
        m_Scale: {x: 1, y: 1}
        m_Offset: {x: 0, y: 0}
    - _dissulve_tex:
        m_Texture: {fileID: 2800000, guid: 4b7c27d92ea943c5a7933b1a18938046, type: 3}
        m_Scale: {x: 1, y: 1}
        m_Offset: {x: 0, y: 0}
    - _mask:
        m_Texture: {fileID: 2800000, guid: 223a63f4fab14e66b99c253c04341344, type: 3}
        m_Scale: {x: 1, y: 1}
        m_Offset: {x: 0, y: 0}
    m_Floats:
    - _Edge_with: 0
    - _Edgeintensity: 0
    - _dissolve_edge_hard: 10
    - _dissuvle_vule: 1.1
    - _maskintensity: 2
    - _qiangdu: 2
    m_Colors:
    - _Edge_color: {r: 1, g: 1, b: 1, a: 1}
    - _color: {r: 0.2848292, g: 0.08067818, b: 0.3490566, a: 1}
