%YAML 1.1
%TAG !u! tag:unity3d.com,2011:
--- !u!21 &2100000
Material:
  serializedVersion: 6
  m_ObjectHideFlags: 0
  m_PrefabParentObject: {fileID: 0}
  m_PrefabInternal: {fileID: 0}
  m_Name: tm_skill203_1
  m_Shader: {fileID: 4800000, guid: ee01eb8fd40c483490f5e37b459b5a12, type: 3}
  m_ShaderKeywords: _NOALPHACHANNEL_OFF
  m_LightmapFlags: 4
  m_EnableInstancingVariants: 0
  m_DoubleSidedGI: 0
  m_CustomRenderQueue: -1
  stringTagMap: {}
  disabledShaderPasses: []
  m_SavedProperties:
    serializedVersion: 3
    m_TexEnvs:
    - _Mask:
        m_Texture: {fileID: 0}
        m_Scale: {x: 1, y: 5}
        m_Offset: {x: 0, y: 0}
    - _NiuQu:
        m_Texture: {fileID: 2800000, guid: 7d9550fbdf7c4cfba1e37ba13b4836cc, type: 3}
        m_Scale: {x: 0.5, y: 2}
        m_Offset: {x: 0, y: 0}
    - _Texture:
        m_Texture: {fileID: 2800000, guid: cb9ef80630a946d1bf9e53eb33866618, type: 3}
        m_Scale: {x: 1, y: 3}
        m_Offset: {x: 0, y: 0}
    m_Floats:
    - _DUspeed: 0
    - _DVsped: 0
    - _Glow: 1
    - _U: 0
    - _V: 0
    - _Value: 1
    - _qiangdu: 0
    m_Colors:
    - _Color: {r: 1, g: 1, b: 1, a: 1}
