%YAML 1.1
%TAG !u! tag:unity3d.com,2011:
--- !u!21 &2100000
Material:
  serializedVersion: 6
  m_ObjectHideFlags: 0
  m_PrefabParentObject: {fileID: 0}
  m_PrefabInternal: {fileID: 0}
  m_Name: tm_skill102_6
  m_Shader: {fileID: 4800000, guid: 47e40293bffd41e9995de169bce960c8, type: 3}
  m_ShaderKeywords: _NOALPHACHANNEL_OFF
  m_LightmapFlags: 4
  m_EnableInstancingVariants: 0
  m_DoubleSidedGI: 0
  m_CustomRenderQueue: -1
  stringTagMap: {}
  disabledShaderPasses: []
  m_SavedProperties:
    serializedVersion: 3
    m_TexEnvs:
    - _Mask:
        m_Texture: {fileID: 2800000, guid: d0ca6b8d52254fe3ad34e0b98d4734e9, type: 3}
        m_Scale: {x: 1, y: 1}
        m_Offset: {x: 0, y: 0}
    - _NiuQu:
        m_Texture: {fileID: 2800000, guid: 4b7c27d92ea943c5a7933b1a18938046, type: 3}
        m_Scale: {x: 2, y: 1}
        m_Offset: {x: 0, y: 0}
    - _Texture:
        m_Texture: {fileID: 2800000, guid: 9db3de78184f4eeaba2bc32da6c40883, type: 3}
        m_Scale: {x: 1.5, y: 1}
        m_Offset: {x: 0, y: 0}
    m_Floats:
    - _MaskIntensity: 1
    - _N_U: -0.1
    - _N_V: 0
    - _NiuQuMax: 0.2
    - _NoAlphaChannel: 0
    - _U: 0.5
    - _V: 0
    - _Value: 1.2
    m_Colors:
    - _Color: {r: 0.2165743, g: 0.08864364, b: 0.2264151, a: 1}
